ALU_VHDL/ALU/simulation/qsim/ALU.msim.vcd
$comment
	File created using the following command:
		vcd file ALU.msim.vcd -direction
$end
$date
	Fri Oct 19 18:35:46 2018
$end
$version
	ModelSim Version 10.1d
$end
$timescale
	1ps
$end
$scope module ALU_vlg_vec_tst $end
$var reg 16 ! A [15:0] $end
$var reg 16 " B [15:0] $end
$var reg 2 # S [1:0] $end
$var wire 1 $ OUTPUT [15] $end
$var wire 1 % OUTPUT [14] $end
$var wire 1 & OUTPUT [13] $end
$var wire 1 ' OUTPUT [12] $end
$var wire 1 ( OUTPUT [11] $end
$var wire 1 ) OUTPUT [10] $end
$var wire 1 * OUTPUT [9] $end
$var wire 1 + OUTPUT [8] $end
$var wire 1 , OUTPUT [7] $end
$var wire 1 - OUTPUT [6] $end
$var wire 1 . OUTPUT [5] $end
$var wire 1 / OUTPUT [4] $end
$var wire 1 0 OUTPUT [3] $end
$var wire 1 1 OUTPUT [2] $end
$var wire 1 2 OUTPUT [1] $end
$var wire 1 3 OUTPUT [0] $end
$var wire 1 4 sampler $end
$scope module i1 $end
$var wire 1 5 gnd $end
$var wire 1 6 vcc $end
$var wire 1 7 unknown $end
$var tri1 1 8 devclrn $end
$var tri1 1 9 devpor $end
$var tri1 1 : devoe $end
$var wire 1 ; Mult0|auto_generated|mac_out2~DATAOUT16 $end
$var wire 1 < Mult0|auto_generated|mac_out2~DATAOUT17 $end
$var wire 1 = Mult0|auto_generated|mac_out2~DATAOUT18 $end
$var wire 1 > Mult0|auto_generated|mac_out2~DATAOUT19 $end
$var wire 1 ? Mult0|auto_generated|mac_out2~DATAOUT20 $end
$var wire 1 @ Mult0|auto_generated|mac_out2~DATAOUT21 $end
$var wire 1 A Mult0|auto_generated|mac_out2~DATAOUT22 $end
$var wire 1 B Mult0|auto_generated|mac_out2~DATAOUT23 $end
$var wire 1 C Mult0|auto_generated|mac_out2~DATAOUT24 $end
$var wire 1 D Mult0|auto_generated|mac_out2~DATAOUT25 $end
$var wire 1 E Mult0|auto_generated|mac_out2~DATAOUT26 $end
$var wire 1 F Mult0|auto_generated|mac_out2~DATAOUT27 $end
$var wire 1 G Mult0|auto_generated|mac_out2~DATAOUT28 $end
$var wire 1 H Mult0|auto_generated|mac_out2~DATAOUT29 $end
$var wire 1 I Mult0|auto_generated|mac_out2~DATAOUT30 $end
$var wire 1 J Mult0|auto_generated|mac_out2~DATAOUT31 $end
$var wire 1 K ~GND~combout $end
$var wire 1 L Mult0|auto_generated|mac_mult1~dataout $end
$var wire 1 M Mult0|auto_generated|mac_mult1~DATAOUT1 $end
$var wire 1 N Mult0|auto_generated|mac_mult1~DATAOUT2 $end
$var wire 1 O Mult0|auto_generated|mac_mult1~DATAOUT3 $end
$var wire 1 P Mult0|auto_generated|mac_mult1~DATAOUT4 $end
$var wire 1 Q Mult0|auto_generated|mac_mult1~DATAOUT5 $end
$var wire 1 R Mult0|auto_generated|mac_mult1~DATAOUT6 $end
$var wire 1 S Mult0|auto_generated|mac_mult1~DATAOUT7 $end
$var wire 1 T Mult0|auto_generated|mac_mult1~DATAOUT8 $end
$var wire 1 U Mult0|auto_generated|mac_mult1~DATAOUT9 $end
$var wire 1 V Mult0|auto_generated|mac_mult1~DATAOUT10 $end
$var wire 1 W Mult0|auto_generated|mac_mult1~DATAOUT11 $end
$var wire 1 X Mult0|auto_generated|mac_mult1~DATAOUT12 $end
$var wire 1 Y Mult0|auto_generated|mac_mult1~DATAOUT13 $end
$var wire 1 Z Mult0|auto_generated|mac_mult1~DATAOUT14 $end
$var wire 1 [ Mult0|auto_generated|mac_mult1~DATAOUT15 $end
$var wire 1 \ Mult0|auto_generated|mac_mult1~DATAOUT16 $end
$var wire 1 ] Mult0|auto_generated|mac_mult1~DATAOUT17 $end
$var wire 1 ^ Mult0|auto_generated|mac_mult1~DATAOUT18 $end
$var wire 1 _ Mult0|auto_generated|mac_mult1~DATAOUT19 $end
$var wire 1 ` Mult0|auto_generated|mac_mult1~DATAOUT20 $end
$var wire 1 a Mult0|auto_generated|mac_mult1~DATAOUT21 $end
$var wire 1 b Mult0|auto_generated|mac_mult1~DATAOUT22 $end
$var wire 1 c Mult0|auto_generated|mac_mult1~DATAOUT23 $end
$var wire 1 d Mult0|auto_generated|mac_mult1~DATAOUT24 $end
$var wire 1 e Mult0|auto_generated|mac_mult1~DATAOUT25 $end
$var wire 1 f Mult0|auto_generated|mac_mult1~DATAOUT26 $end
$var wire 1 g Mult0|auto_generated|mac_mult1~DATAOUT27 $end
$var wire 1 h Mult0|auto_generated|mac_mult1~DATAOUT28 $end
$var wire 1 i Mult0|auto_generated|mac_mult1~DATAOUT29 $end
$var wire 1 j Mult0|auto_generated|mac_mult1~DATAOUT30 $end
$var wire 1 k Mult0|auto_generated|mac_mult1~DATAOUT31 $end
$var wire 1 l Mult0|auto_generated|mac_out2~dataout $end
$var wire 1 m Add0~0_combout $end
$var wire 1 n Add1~0_combout $end
$var wire 1 o OUTPUT[0]~0_combout $end
$var wire 1 p OUTPUT[0]~1_combout $end
$var wire 1 q Add0~1 $end
$var wire 1 r Add0~2_combout $end
$var wire 1 s Mult0|auto_generated|mac_out2~DATAOUT1 $end
$var wire 1 t Add1~1 $end
$var wire 1 u Add1~2_combout $end
$var wire 1 v OUTPUT[1]~2_combout $end
$var wire 1 w OUTPUT[1]~3_combout $end
$var wire 1 x Mult0|auto_generated|mac_out2~DATAOUT2 $end
$var wire 1 y Add0~3 $end
$var wire 1 z Add0~4_combout $end
$var wire 1 { Add1~3 $end
$var wire 1 | Add1~4_combout $end
$var wire 1 } OUTPUT[2]~4_combout $end
$var wire 1 ~ OUTPUT[2]~5_combout $end
$var wire 1 !! Add0~5 $end
$var wire 1 "! Add0~6_combout $end
$var wire 1 #! Mult0|auto_generated|mac_out2~DATAOUT3 $end
$var wire 1 $! Add1~5 $end
$var wire 1 %! Add1~6_combout $end
$var wire 1 &! OUTPUT[3]~6_combout $end
$var wire 1 '! OUTPUT[3]~7_combout $end
$var wire 1 (! Mult0|auto_generated|mac_out2~DATAOUT4 $end
$var wire 1 )! Add0~7 $end
$var wire 1 *! Add0~8_combout $end
$var wire 1 +! Add1~7 $end
$var wire 1 ,! Add1~8_combout $end
$var wire 1 -! OUTPUT[4]~8_combout $end
$var wire 1 .! OUTPUT[4]~9_combout $end
$var wire 1 /! Add0~9 $end
$var wire 1 0! Add0~10_combout $end
$var wire 1 1! Mult0|auto_generated|mac_out2~DATAOUT5 $end
$var wire 1 2! Add1~9 $end
$var wire 1 3! Add1~10_combout $end
$var wire 1 4! OUTPUT[5]~10_combout $end
$var wire 1 5! OUTPUT[5]~11_combout $end
$var wire 1 6! Mult0|auto_generated|mac_out2~DATAOUT6 $end
$var wire 1 7! Add0~11 $end
$var wire 1 8! Add0~12_combout $end
$var wire 1 9! Add1~11 $end
$var wire 1 :! Add1~12_combout $end
$var wire 1 ;! OUTPUT[6]~12_combout $end
$var wire 1 <! OUTPUT[6]~13_combout $end
$var wire 1 =! Add0~13 $end
$var wire 1 >! Add0~14_combout $end
$var wire 1 ?! Mult0|auto_generated|mac_out2~DATAOUT7 $end
$var wire 1 @! Add1~13 $end
$var wire 1 A! Add1~14_combout $end
$var wire 1 B! OUTPUT[7]~14_combout $end
$var wire 1 C! OUTPUT[7]~15_combout $end
$var wire 1 D! Mult0|auto_generated|mac_out2~DATAOUT8 $end
$var wire 1 E! Add0~15 $end
$var wire 1 F! Add0~16_combout $end
$var wire 1 G! Add1~15 $end
$var wire 1 H! Add1~16_combout $end
$var wire 1 I! OUTPUT[8]~16_combout $end
$var wire 1 J! OUTPUT[8]~17_combout $end
$var wire 1 K! Add0~17 $end
$var wire 1 L! Add0~18_combout $end
$var wire 1 M! Mult0|auto_generated|mac_out2~DATAOUT9 $end
$var wire 1 N! Add1~17 $end
$var wire 1 O! Add1~18_combout $end
$var wire 1 P! OUTPUT[9]~18_combout $end
$var wire 1 Q! OUTPUT[9]~19_combout $end
$var wire 1 R! Mult0|auto_generated|mac_out2~DATAOUT10 $end
$var wire 1 S! Add0~19 $end
$var wire 1 T! Add0~20_combout $end
$var wire 1 U! Add1~19 $end
$var wire 1 V! Add1~20_combout $end
$var wire 1 W! OUTPUT[10]~20_combout $end
$var wire 1 X! OUTPUT[10]~21_combout $end
$var wire 1 Y! Add0~21 $end
$var wire 1 Z! Add0~22_combout $end
$var wire 1 [! Mult0|auto_generated|mac_out2~DATAOUT11 $end
$var wire 1 \! Add1~21 $end
$var wire 1 ]! Add1~22_combout $end
$var wire 1 ^! OUTPUT[11]~22_combout $end
$var wire 1 _! OUTPUT[11]~23_combout $end
$var wire 1 `! Mult0|auto_generated|mac_out2~DATAOUT12 $end
$var wire 1 a! Add0~23 $end
$var wire 1 b! Add0~24_combout $end
$var wire 1 c! Add1~23 $end
$var wire 1 d! Add1~24_combout $end
$var wire 1 e! OUTPUT[12]~24_combout $end
$var wire 1 f! OUTPUT[12]~25_combout $end
$var wire 1 g! Add0~25 $end
$var wire 1 h! Add0~26_combout $end
$var wire 1 i! Mult0|auto_generated|mac_out2~DATAOUT13 $end
$var wire 1 j! Add1~25 $end
$var wire 1 k! Add1~26_combout $end
$var wire 1 l! OUTPUT[13]~26_combout $end
$var wire 1 m! OUTPUT[13]~27_combout $end
$var wire 1 n! Mult0|auto_generated|mac_out2~DATAOUT14 $end
$var wire 1 o! Add0~27 $end
$var wire 1 p! Add0~28_combout $end
$var wire 1 q! Add1~27 $end
$var wire 1 r! Add1~28_combout $end
$var wire 1 s! OUTPUT[14]~28_combout $end
$var wire 1 t! OUTPUT[14]~29_combout $end
$var wire 1 u! Add0~29 $end
$var wire 1 v! Add0~30_combout $end
$var wire 1 w! Add1~29 $end
$var wire 1 x! Add1~30_combout $end
$var wire 1 y! Mult0|auto_generated|mac_out2~DATAOUT15 $end
$var wire 1 z! OUTPUT[15]~30_combout $end
$var wire 1 {! OUTPUT[15]~31_combout $end
$var wire 1 |! B~combout [15] $end
$var wire 1 }! B~combout [14] $end
$var wire 1 ~! B~combout [13] $end
$var wire 1 !" B~combout [12] $end
$var wire 1 "" B~combout [11] $end
$var wire 1 #" B~combout [10] $end
$var wire 1 $" B~combout [9] $end
$var wire 1 %" B~combout [8] $end
$var wire 1 &" B~combout [7] $end
$var wire 1 '" B~combout [6] $end
$var wire 1 (" B~combout [5] $end
$var wire 1 )" B~combout [4] $end
$var wire 1 *" B~combout [3] $end
$var wire 1 +" B~combout [2] $end
$var wire 1 ," B~combout [1] $end
$var wire 1 -" B~combout [0] $end
$var wire 1 ." S~combout [1] $end
$var wire 1 /" S~combout [0] $end
$var wire 1 0" A~combout [15] $end
$var wire 1 1" A~combout [14] $end
$var wire 1 2" A~combout [13] $end
$var wire 1 3" A~combout [12] $end
$var wire 1 4" A~combout [11] $end
$var wire 1 5" A~combout [10] $end
$var wire 1 6" A~combout [9] $end
$var wire 1 7" A~combout [8] $end
$var wire 1 8" A~combout [7] $end
$var wire 1 9" A~combout [6] $end
$var wire 1 :" A~combout [5] $end
$var wire 1 ;" A~combout [4] $end
$var wire 1 <" A~combout [3] $end
$var wire 1 =" A~combout [2] $end
$var wire 1 >" A~combout [1] $end
$var wire 1 ?" A~combout [0] $end
$var wire 1 @" Mult0|auto_generated|mac_out2_DATAOUT_bus [31] $end
$var wire 1 A" Mult0|auto_generated|mac_out2_DATAOUT_bus [30] $end
$var wire 1 B" Mult0|auto_generated|mac_out2_DATAOUT_bus [29] $end
$var wire 1 C" Mult0|auto_generated|mac_out2_DATAOUT_bus [28] $end
$var wire 1 D" Mult0|auto_generated|mac_out2_DATAOUT_bus [27] $end
$var wire 1 E" Mult0|auto_generated|mac_out2_DATAOUT_bus [26] $end
$var wire 1 F" Mult0|auto_generated|mac_out2_DATAOUT_bus [25] $end
$var wire 1 G" Mult0|auto_generated|mac_out2_DATAOUT_bus [24] $end
$var wire 1 H" Mult0|auto_generated|mac_out2_DATAOUT_bus [23] $end
$var wire 1 I" Mult0|auto_generated|mac_out2_DATAOUT_bus [22] $end
$var wire 1 J" Mult0|auto_generated|mac_out2_DATAOUT_bus [21] $end
$var wire 1 K" Mult0|auto_generated|mac_out2_DATAOUT_bus [20] $end
$var wire 1 L" Mult0|auto_generated|mac_out2_DATAOUT_bus [19] $end
$var wire 1 M" Mult0|auto_generated|mac_out2_DATAOUT_bus [18] $end
$var wire 1 N" Mult0|auto_generated|mac_out2_DATAOUT_bus [17] $end
$var wire 1 O" Mult0|auto_generated|mac_out2_DATAOUT_bus [16] $end
$var wire 1 P" Mult0|auto_generated|mac_out2_DATAOUT_bus [15] $end
$var wire 1 Q" Mult0|auto_generated|mac_out2_DATAOUT_bus [14] $end
$var wire 1 R" Mult0|auto_generated|mac_out2_DATAOUT_bus [13] $end
$var wire 1 S" Mult0|auto_generated|mac_out2_DATAOUT_bus [12] $end
$var wire 1 T" Mult0|auto_generated|mac_out2_DATAOUT_bus [11] $end
$var wire 1 U" Mult0|auto_generated|mac_out2_DATAOUT_bus [10] $end
$var wire 1 V" Mult0|auto_generated|mac_out2_DATAOUT_bus [9] $end
$var wire 1 W" Mult0|auto_generated|mac_out2_DATAOUT_bus [8] $end
$var wire 1 X" Mult0|auto_generated|mac_out2_DATAOUT_bus [7] $end
$var wire 1 Y" Mult0|auto_generated|mac_out2_DATAOUT_bus [6] $end
$var wire 1 Z" Mult0|auto_generated|mac_out2_DATAOUT_bus [5] $end
$var wire 1 [" Mult0|auto_generated|mac_out2_DATAOUT_bus [4] $end
$var wire 1 \" Mult0|auto_generated|mac_out2_DATAOUT_bus [3] $end
$var wire 1 ]" Mult0|auto_generated|mac_out2_DATAOUT_bus [2] $end
$var wire 1 ^" Mult0|auto_generated|mac_out2_DATAOUT_bus [1] $end
$var wire 1 _" Mult0|auto_generated|mac_out2_DATAOUT_bus [0] $end
$var wire 1 `" Mult0|auto_generated|mac_mult1_DATAOUT_bus [31] $end
$var wire 1 a" Mult0|auto_generated|mac_mult1_DATAOUT_bus [30] $end
$var wire 1 b" Mult0|auto_generated|mac_mult1_DATAOUT_bus [29] $end
$var wire 1 c" Mult0|auto_generated|mac_mult1_DATAOUT_bus [28] $end
$var wire 1 d" Mult0|auto_generated|mac_mult1_DATAOUT_bus [27] $end
$var wire 1 e" Mult0|auto_generated|mac_mult1_DATAOUT_bus [26] $end
$var wire 1 f" Mult0|auto_generated|mac_mult1_DATAOUT_bus [25] $end
$var wire 1 g" Mult0|auto_generated|mac_mult1_DATAOUT_bus [24] $end
$var wire 1 h" Mult0|auto_generated|mac_mult1_DATAOUT_bus [23] $end
$var wire 1 i" Mult0|auto_generated|mac_mult1_DATAOUT_bus [22] $end
$var wire 1 j" Mult0|auto_generated|mac_mult1_DATAOUT_bus [21] $end
$var wire 1 k" Mult0|auto_generated|mac_mult1_DATAOUT_bus [20] $end
$var wire 1 l" Mult0|auto_generated|mac_mult1_DATAOUT_bus [19] $end
$var wire 1 m" Mult0|auto_generated|mac_mult1_DATAOUT_bus [18] $end
$var wire 1 n" Mult0|auto_generated|mac_mult1_DATAOUT_bus [17] $end
$var wire 1 o" Mult0|auto_generated|mac_mult1_DATAOUT_bus [16] $end
$var wire 1 p" Mult0|auto_generated|mac_mult1_DATAOUT_bus [15] $end
$var wire 1 q" Mult0|auto_generated|mac_mult1_DATAOUT_bus [14] $end
$var wire 1 r" Mult0|auto_generated|mac_mult1_DATAOUT_bus [13] $end
$var wire 1 s" Mult0|auto_generated|mac_mult1_DATAOUT_bus [12] $end
$var wire 1 t" Mult0|auto_generated|mac_mult1_DATAOUT_bus [11] $end
$var wire 1 u" Mult0|auto_generated|mac_mult1_DATAOUT_bus [10] $end
$var wire 1 v" Mult0|auto_generated|mac_mult1_DATAOUT_bus [9] $end
$var wire 1 w" Mult0|auto_generated|mac_mult1_DATAOUT_bus [8] $end
$var wire 1 x" Mult0|auto_generated|mac_mult1_DATAOUT_bus [7] $end
$var wire 1 y" Mult0|auto_generated|mac_mult1_DATAOUT_bus [6] $end
$var wire 1 z" Mult0|auto_generated|mac_mult1_DATAOUT_bus [5] $end
$var wire 1 {" Mult0|auto_generated|mac_mult1_DATAOUT_bus [4] $end
$var wire 1 |" Mult0|auto_generated|mac_mult1_DATAOUT_bus [3] $end
$var wire 1 }" Mult0|auto_generated|mac_mult1_DATAOUT_bus [2] $end
$var wire 1 ~" Mult0|auto_generated|mac_mult1_DATAOUT_bus [1] $end
$var wire 1 !# Mult0|auto_generated|mac_mult1_DATAOUT_bus [0] $end
$upscope $end
$upscope $end
$enddefinitions $end
#0
$dumpvars
b1 !
b0 "
b1 #
13
02
01
00
0/
0.
0-
0,
0+
0*
0)
0(
0'
0&
0%
0$
x4
05
16
x7
18
19
1:
0;
0<
0=
0>
0?
0@
0A
0B
0C
0D
0E
0F
0G
0H
0I
0J
0K
0L
0M
0N
0O
0P
0Q
0R
0S
0T
0U
0V
0W
0X
0Y
0Z
0[
0\
0]
0^
0_
0`
0a
0b
0c
0d
0e
0f
0g
0h
0i
0j
0k
0l
1m
1n
1o
1p
1q
0r
0s
0t
0u
0v
0w
0x
0y
0z
1{
0|
0}
0~
1!!
0"!
0#!
0$!
0%!
0&!
0'!
0(!
0)!
0*!
1+!
0,!
0-!
0.!
1/!
00!
01!
02!
03!
04!
05!
06!
07!
08!
19!
0:!
0;!
0<!
1=!
0>!
0?!
0@!
0A!
0B!
0C!
0D!
0E!
0F!
1G!
0H!
0I!
0J!
1K!
0L!
0M!
0N!
0O!
0P!
0Q!
0R!
0S!
0T!
1U!
0V!
0W!
0X!
1Y!
0Z!
0[!
0\!
0]!
0^!
0_!
0`!
0a!
0b!
1c!
0d!
0e!
0f!
1g!
0h!
0i!
0j!
0k!
0l!
0m!
0n!
0o!
0p!
1q!
0r!
0s!
0t!
1u!
0v!
0w!
0x!
0y!
1z!
0{!
0-"
0,"
0+"
0*"
0)"
0("
0'"
0&"
0%"
0$"
0#"
0""
0!"
0~!
0}!
0|!
1/"
0."
1?"
0>"
0="
0<"
0;"
0:"
09"
08"
07"
06"
05"
04"
03"
02"
01"
00"
0_"
0^"
0]"
0\"
0["
0Z"
0Y"
0X"
0W"
0V"
0U"
0T"
0S"
0R"
0Q"
0P"
0O"
0N"
0M"
0L"
0K"
0J"
0I"
0H"
0G"
0F"
0E"
0D"
0C"
0B"
0A"
0@"
0!#
0~"
0}"
0|"
0{"
0z"
0y"
0x"
0w"
0v"
0u"
0t"
0s"
0r"
0q"
0p"
0o"
0n"
0m"
0l"
0k"
0j"
0i"
0h"
0g"
0f"
0e"
0d"
0c"
0b"
0a"
0`"
$end
#10000
b1 "
1-"
1!#
1L
1_"
1l
04
1t
0n
0m
1u
0o
0p
03
#20000
b11 "
b10 "
0-"
1,"
1~"
0!#
1M
0L
1^"
0_"
1s
0l
14
0t
1n
1m
0{
0u
1y
1r
1{
1u
1o
1|
0!!
1z
1w
0|
1p
1}
1)!
1"!
12
1~
0/!
1*!
1'!
13
17!
10!
1-!
11
10
0=!
18!
15!
1.!
1E!
1>!
1;!
1.
1/
0K!
1F!
1C!
1<!
1S!
1L!
1I!
1,
1-
0Y!
1T!
1Q!
1J!
1a!
1Z!
1W!
1*
1+
0g!
1b!
1_!
1X!
1o!
1h!
1e!
1(
1)
0u!
1p!
1m!
1f!
1v!
1s!
1&
1'
1{!
1t!
1$
1%
#30000
b11 "
1-"
1!#
1L
1_"
1l
04
1t
0n
0m
0{
0u
0o
1|
0p
03
#40000
b111 "
b101 "
b100 "
0-"
0,"
1+"
1}"
0~"
0!#
1N
0M
0L
1]"
0^"
0_"
1x
0s
0l
14
0t
1n
1m
1{
1u
0y
0r
1$!
0|
0z
0u
1o
0$!
1|
1z
0w
1%!
0}
1p
0%!
1}
0~
02
1~
13
01
11
#50000
b101 "
1-"
1!#
1L
1_"
1l
04
1t
0n
0m
1u
0o
0p
03
#60000
b111 "
b110 "
0-"
1,"
1~"
0!#
1M
0L
1^"
0_"
1s
0l
14
0t
1n
1m
0{
0u
1y
1r
1{
1u
1o
1$!
0|
0z
1w
0$!
1|
1p
1%!
0}
12
0%!
0~
13
01
#70000
b111 "
1-"
1!#
1L
1_"
1l
04
1t
0n
0m
0{
0u
0o
1$!
0|
0p
1%!
03
#80000
b1111 "
b1011 "
b1001 "
b1000 "
0-"
0,"
0+"
1*"
1|"
0}"
0~"
0!#
1O
0N
0M
0L
1\"
0]"
0^"
0_"
1#!
0x
0s
0l
14
0t
1n
1m
1{
1u
0y
0r
0$!
1|
1z
0+!
0%!
0"!
0u
1o
0|
1!!
0z
0w
1+!
1%!
1}
1,!
0'!
1p
0}
1"!
0,!
1~
02
00
0~
1'!
13
11
01
10
#90000
b1001 "
1-"
1!#
1L
1_"
1l
04
1t
0n
0m
1u
0o
0p
03
#100000
b1011 "
b1010 "
0-"
1,"
1~"
0!#
1M
0L
1^"
0_"
1s
0l
14
0t
1n
1m
0{
0u
1y
1r
1{
1u
1o
1|
0!!
1z
1w
0|
1p
1}
0"!
12
1~
0'!
13
11
00
#110000
b1011 "
1-"
1!#
1L
1_"
1l
04
1t
0n
0m
0{
0u
0o
1|
0p
03
#120000
b1111 "
b1101 "
b1100 "
0-"
0,"
1+"
1}"
0~"
0!#
1N
0M
0L
1]"
0^"
0_"
1x
0s
0l
14
0t
1n
1m
1{
1u
0y
0r
1$!
0|
0z
0u
1o
0$!
1|
1z
0w
0+!
0%!
0}
1p
1+!
1%!
1}
1,!
0~
02
0,!
1~
13
01
11
#130000
b1101 "
1-"
1!#
1L
1_"
1l
04
1t
0n
0m
1u
0o
0p
03
#140000
b1111 "
b1110 "
0-"
1,"
1~"
0!#
1M
0L
1^"
0_"
1s
0l
14
0t
1n
1m
0{
0u
1y
1r
1{
1u
1o
1$!
0|
0z
1w
0$!
1|
1p
0+!
0%!
0}
12
1+!
1%!
1,!
0~
13
0,!
01
#150000
b1111 "
1-"
1!#
1L
1_"
1l
04
1t
0n
0m
0{
0u
0o
1$!
0|
0p
0+!
0%!
03
1,!
#160000
b11111 "
b10111 "
b10011 "
b10001 "
b10000 "
0-"
0,"
0+"
0*"
1)"
1{"
0|"
0}"
0~"
0!#
1P
0O
0N
0M
0L
1["
0\"
0]"
0^"
0_"
1(!
0#!
0x
0s
0l
14
0t
1n
1m
1{
1u
0y
0r
0$!
1|
1z
1+!
1%!
1"!
12!
0,!
0*!
0u
1o
0|
1!!
0z
0w
0%!
1}
02!
1,!
1'!
13!
0-!
1p
0}
0)!
0"!
1~
03!
0.!
02
10
0~
1*!
0'!
13
11
0/
1-!
01
00
1.!
1/
#170000
b10001 "
1-"
1!#
1L
1_"
1l
04
1t
0n
0m
1u
0o
0p
03
#180000
b10011 "
b10010 "
0-"
1,"
1~"
0!#
1M
0L
1^"
0_"
1s
0l
14
0t
1n
1m
0{
0u
1y
1r
1{
1u
1o
1|
0!!
1z
1w
0|
1p
1}
1)!
1"!
12
1~
0*!
1'!
13
0-!
11
10
0.!
0/
#190000
b10011 "
1-"
1!#
1L
1_"
1l
04
1t
0n
0m
0{
0u
0o
1|
0p
03
#200000
b10111 "
b10101 "
b10100 "
0-"
0,"
1+"
1}"
0~"
0!#
1N
0M
0L
1]"
0^"
0_"
1x
0s
0l
14
0t
1n
1m
1{
1u
0y
0r
1$!
0|
0z
0u
1o
0$!
1|
1z
0w
1%!
0}
1p
0%!
1}
0~
02
1~
13
01
11
#210000
b10101 "
1-"
1!#
1L
1_"
1l
04
1t
0n
0m
1u
0o
0p
03
#220000
b10111 "
b10110 "
0-"
1,"
1~"
0!#
1M
0L
1^"
0_"
1s
0l
14
0t
1n
1m
0{
0u
1y
1r
1{
1u
1o
1$!
0|
0z
1w
0$!
1|
1p
1%!
0}
12
0%!
0~
13
01
#230000
b10111 "
1-"
1!#
1L
1_"
1l
04
1t
0n
0m
0{
0u
0o
1$!
0|
0p
1%!
03
#240000
b11111 "
b11011 "
b11001 "
b11000 "
0-"
0,"
0+"
1*"
1|"
0}"
0~"
0!#
1O
0N
0M
0L
1\"
0]"
0^"
0_"
1#!
0x
0s
0l
14
0t
1n
1m
1{
1u
0y
0r
0$!
1|
1z
0+!
0%!
0"!
0u
1o
0|
1!!
0z
0w
1+!
1%!
1}
12!
0,!
0'!
1p
0}
1"!
02!
1,!
1~
13!
02
00
0~
1'!
03!
13
11
01
10
#250000
b11001 "
1-"
1!#
1L
1_"
1l
04
1t
0n
0m
1u
0o
0p
03
#260000
b11011 "
b11010 "
0-"
1,"
1~"
0!#
1M
0L
1^"
0_"
1s
0l
14
0t
1n
1m
0{
0u
1y
1r
1{
1u
1o
1|
0!!
1z
1w
0|
1p
1}
0"!
12
1~
0'!
13
11
00
#270000
b11011 "
1-"
1!#
1L
1_"
1l
04
1t
0n
0m
0{
0u
0o
1|
0p
03
#280000
b11111 "
b11101 "
b11100 "
0-"
0,"
1+"
1}"
0~"
0!#
1N
0M
0L
1]"
0^"
0_"
1x
0s
0l
14
0t
1n
1m
1{
1u
0y
0r
1$!
0|
0z
0u
1o
0$!
1|
1z
0w
0+!
0%!
0}
1p
1+!
1%!
1}
12!
0,!
0~
02
02!
1,!
1~
13!
13
01
03!
11
#290000
b11101 "
1-"
1!#
1L
1_"
1l
04
1t
0n
0m
1u
0o
0p
03
#300000
b11111 "
b11110 "
0-"
1,"
1~"
0!#
1M
0L
1^"
0_"
1s
0l
14
0t
1n
1m
0{
0u
1y
1r
1{
1u
1o
1$!
0|
0z
1w
0$!
1|
1p
0+!
0%!
0}
12
1+!
1%!
12!
0,!
0~
13
02!
1,!
13!
01
03!
#310000
b11111 "
1-"
1!#
1L
1_"
1l
04
1t
0n
0m
0{
0u
0o
1$!
0|
0p
0+!
0%!
03
12!
0,!
13!
#320000
b111111 "
b101111 "
b100111 "
b100011 "
b100001 "
b100000 "
0-"
0,"
0+"
0*"
0)"
1("
1z"
0{"
0|"
0}"
0~"
0!#
1Q
0P
0O
0N
0M
0L
1Z"
0["
0\"
0]"
0^"
0_"
11!
0(!
0#!
0x
0s
0l
14
0t
1n
1m
1{
1u
0y
0r
0$!
1|
1z
1+!
1%!
1"!
02!
1,!
1*!
09!
03!
00!
0u
1o
0|
1!!
0z
0w
0%!
1}
0,!
1'!
19!
13!
1-!
1:!
05!
1p
0}
0)!
0"!
1~
0:!
1.!
02
10
0.
0~
1/!
0*!
0'!
13
11
1/
10!
0-!
01
00
15!
0.!
1.
0/
#330000
b100001 "
1-"
1!#
1L
1_"
1l
04
1t
0n
0m
1u
0o
0p
03
#340000
b100011 "
b100010 "
0-"
1,"
1~"
0!#
1M
0L
1^"
0_"
1s
0l
14
0t
1n
1m
0{
0u
1y
1r
1{
1u
1o
1|
0!!
1z
1w
0|
1p
1}
1)!
1"!
12
1~
0/!
1*!
1'!
13
00!
1-!
11
10
05!
1.!
0.
1/
#350000
b100011 "
1-"
1!#
1L
1_"
1l
04
1t
0n
0m
0{
0u
0o
1|
0p
03
#360000
b100111 "
b100101 "
b100100 "
0-"
0,"
1+"
1}"
0~"
0!#
1N
0M
0L
1]"
0^"
0_"
1x
0s
0l
14
0t
1n
1m
1{
1u
0y
0r
1$!
0|
0z
0u
1o
0$!
1|
1z
0w
1%!
0}
1p
0%!
1}
0~
02
1~
13
01
11
#370000
b100101 "
1-"
1!#
1L
1_"
1l
04
1t
0n
0m
1u
0o
0p
03
#380000
b100111 "
b100110 "
0-"
1,"
1~"
0!#
1M
0L
1^"
0_"
1s
0l
14
0t
1n
1m
0{
0u
1y
1r
1{
1u
1o
1$!
0|
0z
1w
0$!
1|
1p
1%!
0}
12
0%!
0~
13
01
#390000
b100111 "
1-"
1!#
1L
1_"
1l
04
1t
0n
0m
0{
0u
0o
1$!
0|
0p
1%!
03
#400000
b101111 "
b101011 "
b101001 "
b101000 "
0-"
0,"
0+"
1*"
1|"
0}"
0~"
0!#
1O
0N
0M
0L
1\"
0]"
0^"
0_"
1#!
0x
0s
0l
14
0t
1n
1m
1{
1u
0y
0r
0$!
1|
1z
0+!
0%!
0"!
0u
1o
0|
1!!
0z
0w
1+!
1%!
1}
1,!
0'!
1p
0}
1"!
0,!
1~
02
00
0~
1'!
13
11
01
10
#410000
b101001 "
1-"
1!#
1L
1_"
1l
04
1t
0n
0m
1u
0o
0p
03
#420000
b101011 "
b101010 "
0-"
1,"
1~"
0!#
1M
0L
1^"
0_"
1s
0l
14
0t
1n
1m
0{
0u
1y
1r
1{
1u
1o
1|
0!!
1z
1w
0|
1p
1}
0"!
12
1~
0'!
13
11
00
#430000
b101011 "
1-"
1!#
1L
1_"
1l
04
1t
0n
0m
0{
0u
0o
1|
0p
03
#440000
b101111 "
b101101 "
b101100 "
0-"
0,"
1+"
1}"
0~"
0!#
1N
0M
0L
1]"
0^"
0_"
1x
0s
0l
14
0t
1n
1m
1{
1u
0y
0r
1$!
0|
0z
0u
1o
0$!
1|
1z
0w
0+!
0%!
0}
1p
1+!
1%!
1}
1,!
0~
02
0,!
1~
13
01
11
#450000
b101101 "
1-"
1!#
1L
1_"
1l
04
1t
0n
0m
1u
0o
0p
03
#460000
b101111 "
b101110 "
0-"
1,"
1~"
0!#
1M
0L
1^"
0_"
1s
0l
14
0t
1n
1m
0{
0u
1y
1r
1{
1u
1o
1$!
0|
0z
1w
0$!
1|
1p
0+!
0%!
0}
12
1+!
1%!
1,!
0~
13
0,!
01
#470000
b101111 "
1-"
1!#
1L
1_"
1l
04
1t
0n
0m
0{
0u
0o
1$!
0|
0p
0+!
0%!
03
1,!
