sumPC/simulation/qsim/sumPC.msim.vcd
$comment
	File created using the following command:
		vcd file sumPC.msim.vcd -direction
$end
$date
	Thu Nov 15 02:35:41 2018
$end
$version
	ModelSim Version 10.1d
$end
$timescale
	1ps
$end
$scope module sumPC_vlg_vec_tst $end
$var reg 8 ! PCant [7:0] $end
$var wire 1 " PCsig [7] $end
$var wire 1 # PCsig [6] $end
$var wire 1 $ PCsig [5] $end
$var wire 1 % PCsig [4] $end
$var wire 1 & PCsig [3] $end
$var wire 1 ' PCsig [2] $end
$var wire 1 ( PCsig [1] $end
$var wire 1 ) PCsig [0] $end
$var wire 1 * sampler $end
$scope module i1 $end
$var wire 1 + gnd $end
$var wire 1 , vcc $end
$var wire 1 - unknown $end
$var tri1 1 . devclrn $end
$var tri1 1 / devpor $end
$var tri1 1 0 devoe $end
$var wire 1 1 Add0~0_combout $end
$var wire 1 2 Add0~1 $end
$var wire 1 3 Add0~2_combout $end
$var wire 1 4 Add0~3 $end
$var wire 1 5 Add0~4_combout $end
$var wire 1 6 Add0~5 $end
$var wire 1 7 Add0~6_combout $end
$var wire 1 8 Add0~7 $end
$var wire 1 9 Add0~8_combout $end
$var wire 1 : Add0~9 $end
$var wire 1 ; Add0~10_combout $end
$var wire 1 < Add0~11 $end
$var wire 1 = Add0~12_combout $end
$var wire 1 > PCant~combout [7] $end
$var wire 1 ? PCant~combout [6] $end
$var wire 1 @ PCant~combout [5] $end
$var wire 1 A PCant~combout [4] $end
$var wire 1 B PCant~combout [3] $end
$var wire 1 C PCant~combout [2] $end
$var wire 1 D PCant~combout [1] $end
$var wire 1 E PCant~combout [0] $end
$upscope $end
$upscope $end
$enddefinitions $end
#0
$dumpvars
b11111010 !
1)
1(
0'
1&
1%
1$
1#
1"
x*
0+
1,
x-
1.
1/
10
11
02
03
14
15
06
17
18
19
0:
1;
1<
1=
0E
1D
0C
1B
1A
1@
1?
1>
$end
#50000
b11111011 !
1E
0*
12
01
0)
13
0(
1'
#100000
b11111111 !
b11111101 !
b11111100 !
0E
0D
1C
1*
02
04
03
1)
14
13
16
05
0'
06
15
08
07
1'
0&
18
17
1:
09
1&
0%
0:
19
0<
0;
1%
0$
1<
1;
0=
1$
0#
1=
1#
0"
1"
#150000
b11111101 !
1E
0*
11
0)
1(
#200000
b11111111 !
b11111110 !
0E
1D
1*
1)
#250000
b11111111 !
1E
0*
12
01
0)
04
03
0(
16
05
0'
08
07
0&
1:
09
0%
0<
0;
0$
0=
0#
0"
#300000
b1111111 !
b111111 !
b11111 !
b1111 !
b111 !
b11 !
b1 !
b0 !
0E
0D
0C
0B
0A
0@
0?
0>
1*
02
14
13
06
15
18
17
0:
19
1<
1;
1=
1)
03
05
07
09
0;
0=
1'
1&
1%
1$
1#
1"
0'
0&
0%
0$
0#
0"
#350000
b1 !
1E
0*
11
0)
1(
#400000
b11 !
b10 !
0E
1D
1*
1)
#450000
b11 !
1E
0*
12
01
0)
13
0(
1'
#500000
b111 !
b101 !
b100 !
0E
0D
1C
1*
02
04
03
1)
14
13
15
0'
05
1'
1&
0&
#550000
b101 !
1E
0*
11
0)
1(
#600000
b111 !
b110 !
0E
1D
1*
1)
#650000
b111 !
1E
0*
12
01
0)
04
03
0(
15
0'
1&
#700000
b1111 !
b1011 !
b1001 !
b1000 !
0E
0D
0C
1B
1*
02
14
13
16
05
1)
03
06
15
17
1'
0&
07
0'
1&
1%
0%
#750000
b1001 !
1E
0*
11
0)
1(
#800000
b1011 !
b1010 !
0E
1D
1*
1)
#850000
b1011 !
1E
0*
12
01
0)
13
0(
1'
#900000
b1111 !
b1101 !
b1100 !
0E
0D
1C
1*
02
04
03
1)
14
13
16
05
0'
06
15
17
1'
0&
07
1&
1%
0%
#950000
b1101 !
1E
0*
11
0)
1(
