PCounter/simulation/qsim/PCounter.msim.vcd
$comment
	File created using the following command:
		vcd file PCounter.msim.vcd -direction
$end
$date
	Thu Nov 15 02:45:08 2018
$end
$version
	ModelSim Version 10.1d
$end
$timescale
	1ps
$end
$scope module PCounter_vlg_vec_tst $end
$var reg 1 ! clk $end
$var reg 8 " PCin [7:0] $end
$var reg 1 # WE $end
$var wire 1 $ PCact [7] $end
$var wire 1 % PCact [6] $end
$var wire 1 & PCact [5] $end
$var wire 1 ' PCact [4] $end
$var wire 1 ( PCact [3] $end
$var wire 1 ) PCact [2] $end
$var wire 1 * PCact [1] $end
$var wire 1 + PCact [0] $end
$var wire 1 , sampler $end
$scope module i1 $end
$var wire 1 - gnd $end
$var wire 1 . vcc $end
$var wire 1 / unknown $end
$var tri1 1 0 devclrn $end
$var tri1 1 1 devpor $end
$var tri1 1 2 devoe $end
$var wire 1 3 clk~combout $end
$var wire 1 4 clk~clkctrl_outclk $end
$var wire 1 5 WE~combout $end
$var wire 1 6 PCact[0]~reg0_regout $end
$var wire 1 7 PCact[1]~reg0feeder_combout $end
$var wire 1 8 PCact[1]~reg0_regout $end
$var wire 1 9 PCact[2]~reg0_regout $end
$var wire 1 : PCact[3]~reg0feeder_combout $end
$var wire 1 ; PCact[3]~reg0_regout $end
$var wire 1 < PCact[4]~reg0feeder_combout $end
$var wire 1 = PCact[4]~reg0_regout $end
$var wire 1 > PCact[5]~reg0feeder_combout $end
$var wire 1 ? PCact[5]~reg0_regout $end
$var wire 1 @ PCact[6]~reg0_regout $end
$var wire 1 A PCact[7]~reg0feeder_combout $end
$var wire 1 B PCact[7]~reg0_regout $end
$var wire 1 C PCin~combout [7] $end
$var wire 1 D PCin~combout [6] $end
$var wire 1 E PCin~combout [5] $end
$var wire 1 F PCin~combout [4] $end
$var wire 1 G PCin~combout [3] $end
$var wire 1 H PCin~combout [2] $end
$var wire 1 I PCin~combout [1] $end
$var wire 1 J PCin~combout [0] $end
$upscope $end
$upscope $end
$enddefinitions $end
#0
$dumpvars
0!
b0 "
0#
0+
0*
0)
0(
0'
0&
0%
0$
x,
0-
1.
x/
10
11
12
03
04
05
06
07
08
09
0:
0;
0<
0=
0>
0?
0@
0A
0B
0J
0I
0H
0G
0F
0E
0D
0C
$end
#30000
1!
13
14
0,
#60000
0!
03
04
1,
#90000
1!
13
14
0,
#120000
0!
03
04
1,
#150000
1!
13
14
0,
#180000
0!
03
04
1,
#210000
1!
13
14
0,
#240000
0!
03
04
1,
#270000
1!
13
14
0,
#300000
0!
03
04
1,
#330000
1!
13
14
0,
#340000
b10000000 "
b10010000 "
b10010100 "
b10010110 "
1#
1I
1H
1F
1C
15
1,
17
1<
1A
#360000
0!
03
04
0,
#390000
1!
13
14
1,
1B
1=
19
18
1$
1'
1)
1*
#420000
b10110 "
b110 "
b10 "
b0 "
0#
0!
0I
0H
0F
0C
05
03
04
0,
07
0<
0A
#450000
1!
13
14
1,
#480000
0!
03
04
0,
#510000
1!
13
14
1,
#540000
0!
03
04
0,
#570000
1!
13
14
1,
#600000
0!
03
04
0,
#630000
1!
13
14
1,
#660000
0!
03
04
0,
#690000
1!
13
14
1,
#720000
1#
0!
15
03
04
0,
#750000
1!
13
14
1,
0B
0=
09
08
0$
0'
0)
0*
#780000
0!
03
04
0,
#810000
1!
13
14
1,
#840000
0!
03
04
0,
#860000
0#
05
1,
#870000
1!
13
14
0,
#900000
0!
03
04
1,
#930000
1!
13
14
0,
#960000
0!
03
04
1,
#990000
1!
13
14
0,
