ALU_VHDL/ALUV2/simulation/qsim/ALU.msim.vcd
$comment
	File created using the following command:
		vcd file ALU.msim.vcd -direction
$end
$date
	Wed Nov 21 08:13:57 2018
$end
$version
	ModelSim Version 10.1d
$end
$timescale
	1ps
$end
$scope module ALU_vlg_vec_tst $end
$var reg 16 ! A [15:0] $end
$var reg 16 " B [15:0] $end
$var reg 2 # S [1:0] $end
$var wire 1 $ N $end
$var wire 1 % OUTPUT [15] $end
$var wire 1 & OUTPUT [14] $end
$var wire 1 ' OUTPUT [13] $end
$var wire 1 ( OUTPUT [12] $end
$var wire 1 ) OUTPUT [11] $end
$var wire 1 * OUTPUT [10] $end
$var wire 1 + OUTPUT [9] $end
$var wire 1 , OUTPUT [8] $end
$var wire 1 - OUTPUT [7] $end
$var wire 1 . OUTPUT [6] $end
$var wire 1 / OUTPUT [5] $end
$var wire 1 0 OUTPUT [4] $end
$var wire 1 1 OUTPUT [3] $end
$var wire 1 2 OUTPUT [2] $end
$var wire 1 3 OUTPUT [1] $end
$var wire 1 4 OUTPUT [0] $end
$var wire 1 5 Z $end
$var wire 1 6 sampler $end
$scope module i1 $end
$var wire 1 7 gnd $end
$var wire 1 8 vcc $end
$var wire 1 9 unknown $end
$var tri1 1 : devclrn $end
$var tri1 1 ; devpor $end
$var tri1 1 < devoe $end
$var wire 1 = Add1~28_combout $end
$var wire 1 > Mult0|auto_generated|mac_out2~DATAOUT13 $end
$var wire 1 ? Mult0|auto_generated|mac_out2~DATAOUT15 $end
$var wire 1 @ Mult0|auto_generated|mac_out2~DATAOUT16 $end
$var wire 1 A Mult0|auto_generated|mac_out2~DATAOUT17 $end
$var wire 1 B Mult0|auto_generated|mac_out2~DATAOUT18 $end
$var wire 1 C Mult0|auto_generated|mac_out2~DATAOUT19 $end
$var wire 1 D Mult0|auto_generated|mac_out2~DATAOUT20 $end
$var wire 1 E Mult0|auto_generated|mac_out2~DATAOUT21 $end
$var wire 1 F Mult0|auto_generated|mac_out2~DATAOUT22 $end
$var wire 1 G Mult0|auto_generated|mac_out2~DATAOUT23 $end
$var wire 1 H Mult0|auto_generated|mac_out2~DATAOUT24 $end
$var wire 1 I Mult0|auto_generated|mac_out2~DATAOUT25 $end
$var wire 1 J Mult0|auto_generated|mac_out2~DATAOUT26 $end
$var wire 1 K Mult0|auto_generated|mac_out2~DATAOUT27 $end
$var wire 1 L Mult0|auto_generated|mac_out2~DATAOUT28 $end
$var wire 1 M Mult0|auto_generated|mac_out2~DATAOUT29 $end
$var wire 1 N Mult0|auto_generated|mac_out2~DATAOUT30 $end
$var wire 1 O Mult0|auto_generated|mac_out2~DATAOUT31 $end
$var wire 1 P Mult0|auto_generated|mac_out2~0 $end
$var wire 1 Q Mult0|auto_generated|mac_out2~1 $end
$var wire 1 R Mult0|auto_generated|mac_out2~2 $end
$var wire 1 S Mult0|auto_generated|mac_out2~3 $end
$var wire 1 T Add0~0_combout $end
$var wire 1 U Add0~2_combout $end
$var wire 1 V Add0~6_combout $end
$var wire 1 W Add0~10_combout $end
$var wire 1 X Add0~14_combout $end
$var wire 1 Y Add1~1 $end
$var wire 1 Z Add1~3 $end
$var wire 1 [ Add1~5 $end
$var wire 1 \ Add1~7 $end
$var wire 1 ] Add1~9 $end
$var wire 1 ^ Add1~11 $end
$var wire 1 _ Add1~13 $end
$var wire 1 ` Add1~15 $end
$var wire 1 a Add1~17 $end
$var wire 1 b Add1~19 $end
$var wire 1 c Add1~20_combout $end
$var wire 1 d Add1~18_combout $end
$var wire 1 e Add1~16_combout $end
$var wire 1 f Equal4~2_combout $end
$var wire 1 g Add1~21 $end
$var wire 1 h Add1~23 $end
$var wire 1 i Add1~25 $end
$var wire 1 j Add1~26_combout $end
$var wire 1 k Add1~27 $end
$var wire 1 l Add1~29 $end
$var wire 1 m Add1~30_combout $end
$var wire 1 n Add1~24_combout $end
$var wire 1 o Equal4~3_combout $end
$var wire 1 p Add1~12_combout $end
$var wire 1 q Add1~8_combout $end
$var wire 1 r Add1~14_combout $end
$var wire 1 s Equal4~1_combout $end
$var wire 1 t Add1~6_combout $end
$var wire 1 u Add1~4_combout $end
$var wire 1 v Add1~2_combout $end
$var wire 1 w Equal4~0_combout $end
$var wire 1 x Equal4~4_combout $end
$var wire 1 y LessThan0~1_cout $end
$var wire 1 z LessThan0~3_cout $end
$var wire 1 { LessThan0~5_cout $end
$var wire 1 | LessThan0~7_cout $end
$var wire 1 } LessThan0~9_cout $end
$var wire 1 ~ LessThan0~11_cout $end
$var wire 1 !! LessThan0~13_cout $end
$var wire 1 "! LessThan0~15_cout $end
$var wire 1 #! LessThan0~17_cout $end
$var wire 1 $! LessThan0~19_cout $end
$var wire 1 %! LessThan0~21_cout $end
$var wire 1 &! LessThan0~23_cout $end
$var wire 1 '! LessThan0~25_cout $end
$var wire 1 (! LessThan0~27_cout $end
$var wire 1 )! LessThan0~29_cout $end
$var wire 1 *! LessThan0~30_combout $end
$var wire 1 +! Add1~0_combout $end
$var wire 1 ,! OUTPUT[0]~0_combout $end
$var wire 1 -! ~GND~combout $end
$var wire 1 .! Mult0|auto_generated|mac_mult1~dataout $end
$var wire 1 /! Mult0|auto_generated|mac_mult1~DATAOUT1 $end
$var wire 1 0! Mult0|auto_generated|mac_mult1~DATAOUT2 $end
$var wire 1 1! Mult0|auto_generated|mac_mult1~DATAOUT3 $end
$var wire 1 2! Mult0|auto_generated|mac_mult1~DATAOUT4 $end
$var wire 1 3! Mult0|auto_generated|mac_mult1~DATAOUT5 $end
$var wire 1 4! Mult0|auto_generated|mac_mult1~DATAOUT6 $end
$var wire 1 5! Mult0|auto_generated|mac_mult1~DATAOUT7 $end
$var wire 1 6! Mult0|auto_generated|mac_mult1~DATAOUT8 $end
$var wire 1 7! Mult0|auto_generated|mac_mult1~DATAOUT9 $end
$var wire 1 8! Mult0|auto_generated|mac_mult1~DATAOUT10 $end
$var wire 1 9! Mult0|auto_generated|mac_mult1~DATAOUT11 $end
$var wire 1 :! Mult0|auto_generated|mac_mult1~DATAOUT12 $end
$var wire 1 ;! Mult0|auto_generated|mac_mult1~DATAOUT13 $end
$var wire 1 <! Mult0|auto_generated|mac_mult1~DATAOUT14 $end
$var wire 1 =! Mult0|auto_generated|mac_mult1~DATAOUT15 $end
$var wire 1 >! Mult0|auto_generated|mac_mult1~DATAOUT16 $end
$var wire 1 ?! Mult0|auto_generated|mac_mult1~DATAOUT17 $end
$var wire 1 @! Mult0|auto_generated|mac_mult1~DATAOUT18 $end
$var wire 1 A! Mult0|auto_generated|mac_mult1~DATAOUT19 $end
$var wire 1 B! Mult0|auto_generated|mac_mult1~DATAOUT20 $end
$var wire 1 C! Mult0|auto_generated|mac_mult1~DATAOUT21 $end
$var wire 1 D! Mult0|auto_generated|mac_mult1~DATAOUT22 $end
$var wire 1 E! Mult0|auto_generated|mac_mult1~DATAOUT23 $end
$var wire 1 F! Mult0|auto_generated|mac_mult1~DATAOUT24 $end
$var wire 1 G! Mult0|auto_generated|mac_mult1~DATAOUT25 $end
$var wire 1 H! Mult0|auto_generated|mac_mult1~DATAOUT26 $end
$var wire 1 I! Mult0|auto_generated|mac_mult1~DATAOUT27 $end
$var wire 1 J! Mult0|auto_generated|mac_mult1~DATAOUT28 $end
$var wire 1 K! Mult0|auto_generated|mac_mult1~DATAOUT29 $end
$var wire 1 L! Mult0|auto_generated|mac_mult1~DATAOUT30 $end
$var wire 1 M! Mult0|auto_generated|mac_mult1~DATAOUT31 $end
$var wire 1 N! Mult0|auto_generated|mac_mult1~0 $end
$var wire 1 O! Mult0|auto_generated|mac_mult1~1 $end
$var wire 1 P! Mult0|auto_generated|mac_mult1~2 $end
$var wire 1 Q! Mult0|auto_generated|mac_mult1~3 $end
$var wire 1 R! Mult0|auto_generated|mac_out2~dataout $end
$var wire 1 S! OUTPUT[0]~1_combout $end
$var wire 1 T! Mult0|auto_generated|mac_out2~DATAOUT1 $end
$var wire 1 U! OUTPUT[1]~2_combout $end
$var wire 1 V! OUTPUT[1]~3_combout $end
$var wire 1 W! Mult0|auto_generated|mac_out2~DATAOUT2 $end
$var wire 1 X! Add0~1 $end
$var wire 1 Y! Add0~3 $end
$var wire 1 Z! Add0~4_combout $end
$var wire 1 [! OUTPUT[2]~4_combout $end
$var wire 1 \! OUTPUT[2]~5_combout $end
$var wire 1 ]! Mult0|auto_generated|mac_out2~DATAOUT3 $end
$var wire 1 ^! OUTPUT[3]~6_combout $end
$var wire 1 _! OUTPUT[3]~7_combout $end
$var wire 1 `! Mult0|auto_generated|mac_out2~DATAOUT4 $end
$var wire 1 a! Add0~5 $end
$var wire 1 b! Add0~7 $end
$var wire 1 c! Add0~8_combout $end
$var wire 1 d! OUTPUT[4]~8_combout $end
$var wire 1 e! OUTPUT[4]~9_combout $end
$var wire 1 f! Add1~10_combout $end
$var wire 1 g! Mult0|auto_generated|mac_out2~DATAOUT5 $end
$var wire 1 h! OUTPUT[5]~10_combout $end
$var wire 1 i! OUTPUT[5]~11_combout $end
$var wire 1 j! Add0~9 $end
$var wire 1 k! Add0~11 $end
$var wire 1 l! Add0~12_combout $end
$var wire 1 m! OUTPUT[6]~12_combout $end
$var wire 1 n! Mult0|auto_generated|mac_out2~DATAOUT6 $end
$var wire 1 o! OUTPUT[6]~13_combout $end
$var wire 1 p! Mult0|auto_generated|mac_out2~DATAOUT7 $end
$var wire 1 q! OUTPUT[7]~14_combout $end
$var wire 1 r! OUTPUT[7]~15_combout $end
$var wire 1 s! Mult0|auto_generated|mac_out2~DATAOUT8 $end
$var wire 1 t! Add0~13 $end
$var wire 1 u! Add0~15 $end
$var wire 1 v! Add0~16_combout $end
$var wire 1 w! OUTPUT[8]~16_combout $end
$var wire 1 x! OUTPUT[8]~17_combout $end
$var wire 1 y! Add0~17 $end
$var wire 1 z! Add0~18_combout $end
$var wire 1 {! Mult0|auto_generated|mac_out2~DATAOUT9 $end
$var wire 1 |! OUTPUT[9]~18_combout $end
$var wire 1 }! OUTPUT[9]~19_combout $end
$var wire 1 ~! Add0~19 $end
$var wire 1 !" Add0~20_combout $end
$var wire 1 "" OUTPUT[10]~20_combout $end
$var wire 1 #" Mult0|auto_generated|mac_out2~DATAOUT10 $end
$var wire 1 $" OUTPUT[10]~21_combout $end
$var wire 1 %" Add1~22_combout $end
$var wire 1 &" Mult0|auto_generated|mac_out2~DATAOUT11 $end
$var wire 1 '" Add0~21 $end
$var wire 1 (" Add0~22_combout $end
$var wire 1 )" OUTPUT[11]~22_combout $end
$var wire 1 *" OUTPUT[11]~23_combout $end
$var wire 1 +" Mult0|auto_generated|mac_out2~DATAOUT12 $end
$var wire 1 ," Add0~23 $end
$var wire 1 -" Add0~24_combout $end
$var wire 1 ." OUTPUT[12]~24_combout $end
$var wire 1 /" OUTPUT[12]~25_combout $end
$var wire 1 0" Add0~25 $end
$var wire 1 1" Add0~26_combout $end
$var wire 1 2" OUTPUT[13]~26_combout $end
$var wire 1 3" OUTPUT[13]~27_combout $end
$var wire 1 4" Mult0|auto_generated|mac_out2~DATAOUT14 $end
$var wire 1 5" Add0~27 $end
$var wire 1 6" Add0~28_combout $end
$var wire 1 7" OUTPUT[14]~28_combout $end
$var wire 1 8" OUTPUT[14]~29_combout $end
$var wire 1 9" OUTPUT[15]~30_combout $end
$var wire 1 :" Add0~29 $end
$var wire 1 ;" Add0~30_combout $end
$var wire 1 <" OUTPUT[15]~31_combout $end
$var wire 1 =" B~combout [15] $end
$var wire 1 >" B~combout [14] $end
$var wire 1 ?" B~combout [13] $end
$var wire 1 @" B~combout [12] $end
$var wire 1 A" B~combout [11] $end
$var wire 1 B" B~combout [10] $end
$var wire 1 C" B~combout [9] $end
$var wire 1 D" B~combout [8] $end
$var wire 1 E" B~combout [7] $end
$var wire 1 F" B~combout [6] $end
$var wire 1 G" B~combout [5] $end
$var wire 1 H" B~combout [4] $end
$var wire 1 I" B~combout [3] $end
$var wire 1 J" B~combout [2] $end
$var wire 1 K" B~combout [1] $end
$var wire 1 L" B~combout [0] $end
$var wire 1 M" S~combout [1] $end
$var wire 1 N" S~combout [0] $end
$var wire 1 O" A~combout [15] $end
$var wire 1 P" A~combout [14] $end
$var wire 1 Q" A~combout [13] $end
$var wire 1 R" A~combout [12] $end
$var wire 1 S" A~combout [11] $end
$var wire 1 T" A~combout [10] $end
$var wire 1 U" A~combout [9] $end
$var wire 1 V" A~combout [8] $end
$var wire 1 W" A~combout [7] $end
$var wire 1 X" A~combout [6] $end
$var wire 1 Y" A~combout [5] $end
$var wire 1 Z" A~combout [4] $end
$var wire 1 [" A~combout [3] $end
$var wire 1 \" A~combout [2] $end
$var wire 1 ]" A~combout [1] $end
$var wire 1 ^" A~combout [0] $end
$var wire 1 _" Mult0|auto_generated|mac_out2_DATAOUT_bus [35] $end
$var wire 1 `" Mult0|auto_generated|mac_out2_DATAOUT_bus [34] $end
$var wire 1 a" Mult0|auto_generated|mac_out2_DATAOUT_bus [33] $end
$var wire 1 b" Mult0|auto_generated|mac_out2_DATAOUT_bus [32] $end
$var wire 1 c" Mult0|auto_generated|mac_out2_DATAOUT_bus [31] $end
$var wire 1 d" Mult0|auto_generated|mac_out2_DATAOUT_bus [30] $end
$var wire 1 e" Mult0|auto_generated|mac_out2_DATAOUT_bus [29] $end
$var wire 1 f" Mult0|auto_generated|mac_out2_DATAOUT_bus [28] $end
$var wire 1 g" Mult0|auto_generated|mac_out2_DATAOUT_bus [27] $end
$var wire 1 h" Mult0|auto_generated|mac_out2_DATAOUT_bus [26] $end
$var wire 1 i" Mult0|auto_generated|mac_out2_DATAOUT_bus [25] $end
$var wire 1 j" Mult0|auto_generated|mac_out2_DATAOUT_bus [24] $end
$var wire 1 k" Mult0|auto_generated|mac_out2_DATAOUT_bus [23] $end
$var wire 1 l" Mult0|auto_generated|mac_out2_DATAOUT_bus [22] $end
$var wire 1 m" Mult0|auto_generated|mac_out2_DATAOUT_bus [21] $end
$var wire 1 n" Mult0|auto_generated|mac_out2_DATAOUT_bus [20] $end
$var wire 1 o" Mult0|auto_generated|mac_out2_DATAOUT_bus [19] $end
$var wire 1 p" Mult0|auto_generated|mac_out2_DATAOUT_bus [18] $end
$var wire 1 q" Mult0|auto_generated|mac_out2_DATAOUT_bus [17] $end
$var wire 1 r" Mult0|auto_generated|mac_out2_DATAOUT_bus [16] $end
$var wire 1 s" Mult0|auto_generated|mac_out2_DATAOUT_bus [15] $end
$var wire 1 t" Mult0|auto_generated|mac_out2_DATAOUT_bus [14] $end
$var wire 1 u" Mult0|auto_generated|mac_out2_DATAOUT_bus [13] $end
$var wire 1 v" Mult0|auto_generated|mac_out2_DATAOUT_bus [12] $end
$var wire 1 w" Mult0|auto_generated|mac_out2_DATAOUT_bus [11] $end
$var wire 1 x" Mult0|auto_generated|mac_out2_DATAOUT_bus [10] $end
$var wire 1 y" Mult0|auto_generated|mac_out2_DATAOUT_bus [9] $end
$var wire 1 z" Mult0|auto_generated|mac_out2_DATAOUT_bus [8] $end
$var wire 1 {" Mult0|auto_generated|mac_out2_DATAOUT_bus [7] $end
$var wire 1 |" Mult0|auto_generated|mac_out2_DATAOUT_bus [6] $end
$var wire 1 }" Mult0|auto_generated|mac_out2_DATAOUT_bus [5] $end
$var wire 1 ~" Mult0|auto_generated|mac_out2_DATAOUT_bus [4] $end
$var wire 1 !# Mult0|auto_generated|mac_out2_DATAOUT_bus [3] $end
$var wire 1 "# Mult0|auto_generated|mac_out2_DATAOUT_bus [2] $end
$var wire 1 ## Mult0|auto_generated|mac_out2_DATAOUT_bus [1] $end
$var wire 1 $# Mult0|auto_generated|mac_out2_DATAOUT_bus [0] $end
$var wire 1 %# Mult0|auto_generated|mac_mult1_DATAOUT_bus [35] $end
$var wire 1 &# Mult0|auto_generated|mac_mult1_DATAOUT_bus [34] $end
$var wire 1 '# Mult0|auto_generated|mac_mult1_DATAOUT_bus [33] $end
$var wire 1 (# Mult0|auto_generated|mac_mult1_DATAOUT_bus [32] $end
$var wire 1 )# Mult0|auto_generated|mac_mult1_DATAOUT_bus [31] $end
$var wire 1 *# Mult0|auto_generated|mac_mult1_DATAOUT_bus [30] $end
$var wire 1 +# Mult0|auto_generated|mac_mult1_DATAOUT_bus [29] $end
$var wire 1 ,# Mult0|auto_generated|mac_mult1_DATAOUT_bus [28] $end
$var wire 1 -# Mult0|auto_generated|mac_mult1_DATAOUT_bus [27] $end
$var wire 1 .# Mult0|auto_generated|mac_mult1_DATAOUT_bus [26] $end
$var wire 1 /# Mult0|auto_generated|mac_mult1_DATAOUT_bus [25] $end
$var wire 1 0# Mult0|auto_generated|mac_mult1_DATAOUT_bus [24] $end
$var wire 1 1# Mult0|auto_generated|mac_mult1_DATAOUT_bus [23] $end
$var wire 1 2# Mult0|auto_generated|mac_mult1_DATAOUT_bus [22] $end
$var wire 1 3# Mult0|auto_generated|mac_mult1_DATAOUT_bus [21] $end
$var wire 1 4# Mult0|auto_generated|mac_mult1_DATAOUT_bus [20] $end
$var wire 1 5# Mult0|auto_generated|mac_mult1_DATAOUT_bus [19] $end
$var wire 1 6# Mult0|auto_generated|mac_mult1_DATAOUT_bus [18] $end
$var wire 1 7# Mult0|auto_generated|mac_mult1_DATAOUT_bus [17] $end
$var wire 1 8# Mult0|auto_generated|mac_mult1_DATAOUT_bus [16] $end
$var wire 1 9# Mult0|auto_generated|mac_mult1_DATAOUT_bus [15] $end
$var wire 1 :# Mult0|auto_generated|mac_mult1_DATAOUT_bus [14] $end
$var wire 1 ;# Mult0|auto_generated|mac_mult1_DATAOUT_bus [13] $end
$var wire 1 <# Mult0|auto_generated|mac_mult1_DATAOUT_bus [12] $end
$var wire 1 =# Mult0|auto_generated|mac_mult1_DATAOUT_bus [11] $end
$var wire 1 ># Mult0|auto_generated|mac_mult1_DATAOUT_bus [10] $end
$var wire 1 ?# Mult0|auto_generated|mac_mult1_DATAOUT_bus [9] $end
$var wire 1 @# Mult0|auto_generated|mac_mult1_DATAOUT_bus [8] $end
$var wire 1 A# Mult0|auto_generated|mac_mult1_DATAOUT_bus [7] $end
$var wire 1 B# Mult0|auto_generated|mac_mult1_DATAOUT_bus [6] $end
$var wire 1 C# Mult0|auto_generated|mac_mult1_DATAOUT_bus [5] $end
$var wire 1 D# Mult0|auto_generated|mac_mult1_DATAOUT_bus [4] $end
$var wire 1 E# Mult0|auto_generated|mac_mult1_DATAOUT_bus [3] $end
$var wire 1 F# Mult0|auto_generated|mac_mult1_DATAOUT_bus [2] $end
$var wire 1 G# Mult0|auto_generated|mac_mult1_DATAOUT_bus [1] $end
$var wire 1 H# Mult0|auto_generated|mac_mult1_DATAOUT_bus [0] $end
$upscope $end
$upscope $end
$enddefinitions $end
#0
$dumpvars
b1 !
b0 "
b1 #
0$
14
03
02
01
00
0/
0.
0-
0,
0+
0*
0)
0(
0'
0&
0%
05
x6
07
18
x9
1:
1;
1<
0=
0>
0?
0@
0A
0B
0C
0D
0E
0F
0G
0H
0I
0J
0K
0L
0M
0N
0O
0P
0Q
0R
0S
1T
0U
0V
0W
0X
1Y
0Z
1[
0\
1]
0^
1_
0`
1a
0b
0c
0d
0e
1f
1g
0h
1i
0j
0k
1l
0m
0n
1o
0p
0q
0r
1s
0t
0u
0v
0w
0x
0y
1z
0{
1|
0}
1~
0!!
1"!
0#!
1$!
0%!
1&!
0'!
1(!
0)!
0*!
1+!
1,!
0-!
0.!
0/!
00!
01!
02!
03!
04!
05!
06!
07!
08!
09!
0:!
0;!
0<!
0=!
0>!
0?!
0@!
0A!
0B!
0C!
0D!
0E!
0F!
0G!
0H!
0I!
0J!
0K!
0L!
0M!
0N!
0O!
0P!
0Q!
0R!
1S!
0T!
0U!
0V!
0W!
0X!
1Y!
0Z!
0[!
0\!
0]!
0^!
0_!
0`!
0a!
1b!
0c!
0d!
0e!
0f!
0g!
0h!
0i!
0j!
1k!
0l!
0m!
0n!
0o!
0p!
0q!
0r!
0s!
0t!
1u!
0v!
0w!
0x!
0y!
0z!
0{!
0|!
0}!
1~!
0!"
0""
0#"
0$"
0%"
0&"
0'"
0("
0)"
0*"
0+"
1,"
0-"
0."
0/"
00"
01"
02"
03"
04"
15"
06"
07"
08"
19"
0:"
0;"
0<"
0L"
0K"
0J"
0I"
0H"
0G"
0F"
0E"
0D"
0C"
0B"
0A"
0@"
0?"
0>"
0="
1N"
0M"
1^"
0]"
0\"
0["
0Z"
0Y"
0X"
0W"
0V"
0U"
0T"
0S"
0R"
0Q"
0P"
0O"
0$#
0##
0"#
0!#
0~"
0}"
0|"
0{"
0z"
0y"
0x"
0w"
0v"
0u"
0t"
0s"
0r"
0q"
0p"
0o"
0n"
0m"
0l"
0k"
0j"
0i"
0h"
0g"
0f"
0e"
0d"
0c"
0b"
0a"
0`"
0_"
0H#
0G#
0F#
0E#
0D#
0C#
0B#
0A#
0@#
0?#
0>#
0=#
0<#
0;#
0:#
09#
08#
07#
06#
05#
04#
03#
02#
01#
00#
0/#
0.#
0-#
0,#
0+#
0*#
0)#
0(#
0'#
0&#
0%#
$end
#10000
b1 "
1L"
1D#
1.!
1~"
1R!
06
0+!
1X!
0T
0,!
1w
1U
0S!
1x
04
15
#20000
b11 "
b10 "
0L"
1K"
1C#
0D#
1/!
0.!
1}"
0~"
1T!
0R!
16
1+!
0X!
1T
0z
1Z
1v
0Y!
0U
1,!
0w
1Y!
1U
1{
0[
1u
1V!
1Z!
1S!
0x
0Z!
0|
1\
1t
1[!
13
1}
0]
1q
1_!
1\!
14
05
0~
1^
1f!
1d!
0s
11
12
1!!
0_
1p
1i!
1e!
0"!
1`
1r
1m!
1/
10
1#!
0a
1e
1r!
1o!
0$!
1b
1d
1w!
0f
1-
1.
1%!
0g
1c
1}!
1x!
0&!
1h
1%"
1""
1+
1,
1'!
0i
1n
1*"
1$"
0(!
1k
1j
1."
0o
1)
1*
1)!
0l
1=
13"
1/"
1*!
1m
17"
1'
1(
1<"
18"
1$
1%
1&
#30000
b11 "
1L"
1D#
1.!
1~"
1R!
06
0+!
1X!
0T
0,!
0Y!
0U
0S!
1Z!
04
#40000
b111 "
b101 "
b100 "
0L"
0K"
1J"
1B#
0C#
0D#
10!
0/!
0.!
1|"
0}"
0~"
1W!
0T!
0R!
16
1+!
0X!
1T
1z
0Z
0v
1Y!
1U
1a!
0Z!
0u
1,!
0U
1u
0V!
0a!
1Z!
1V
0[!
1S!
1[!
0V
0\!
03
1\!
14
02
12
#50000
b101 "
1L"
1D#
1.!
1~"
1R!
06
0+!
1X!
0T
0,!
1U
0S!
04
#60000
b111 "
b110 "
0L"
1K"
1C#
0D#
1/!
0.!
1}"
0~"
1T!
0R!
16
1+!
0X!
1T
0z
1Z
1v
0Y!
0U
1,!
1Y!
1U
0u
1V!
1a!
0Z!
1S!
0a!
1Z!
0[!
1V
13
0V
0\!
14
02
#70000
b111 "
1L"
1D#
1.!
1~"
1R!
06
0+!
1X!
0T
0,!
0Y!
0U
0S!
1a!
0Z!
1V
04
#80000
b1111 "
b1011 "
b1001 "
b1000 "
0L"
0K"
0J"
1I"
1A#
0B#
0C#
0D#
11!
00!
0/!
0.!
1{"
0|"
0}"
0~"
1]!
0W!
0T!
0R!
16
1+!
0X!
1T
1z
0Z
0v
1Y!
1U
0a!
1Z!
1u
0t
0b!
0V
1,!
0U
0{
1[
0u
0V!
0Z!
1b!
1V
1[!
0_!
1c!
1S!
1t
0[!
0c!
1\!
03
01
1_!
0\!
14
12
11
02
#90000
b1001 "
1L"
1D#
1.!
1~"
1R!
06
0+!
1X!
0T
0,!
1U
0S!
04
#100000
b1011 "
b1010 "
0L"
1K"
1C#
0D#
1/!
0.!
1}"
0~"
1T!
0R!
16
1+!
0X!
1T
0z
1Z
1v
0Y!
0U
1,!
1Y!
1U
1{
0[
1u
1V!
1Z!
1S!
0Z!
0t
1[!
13
0_!
1\!
14
01
12
#110000
b1011 "
1L"
1D#
1.!
1~"
1R!
06
0+!
1X!
0T
0,!
0Y!
0U
0S!
1Z!
04
#120000
b1111 "
b1101 "
b1100 "
0L"
0K"
1J"
1B#
0C#
0D#
10!
0/!
0.!
1|"
0}"
0~"
1W!
0T!
0R!
16
1+!
0X!
1T
1z
0Z
0v
1Y!
1U
1a!
0Z!
0u
1,!
0U
1u
0V!
0a!
1Z!
0b!
0V
0[!
1S!
1[!
1b!
1V
1c!
0\!
03
1\!
0c!
14
02
12
#130000
b1101 "
1L"
1D#
1.!
1~"
1R!
06
0+!
1X!
0T
0,!
1U
0S!
04
#140000
b1111 "
b1110 "
0L"
1K"
1C#
0D#
1/!
0.!
1}"
0~"
1T!
0R!
16
1+!
0X!
1T
0z
1Z
1v
0Y!
0U
1,!
1Y!
1U
0u
1V!
1a!
0Z!
1S!
0a!
1Z!
0[!
0b!
0V
13
1b!
1V
0\!
1c!
14
0c!
02
#150000
b1111 "
1L"
1D#
1.!
1~"
1R!
06
0+!
1X!
0T
0,!
0Y!
0U
0S!
1a!
0Z!
0b!
0V
04
1c!
#160000
b11111 "
b10111 "
b10011 "
b10001 "
b10000 "
0L"
0K"
0J"
0I"
1H"
1@#
0A#
0B#
0C#
0D#
12!
01!
00!
0/!
0.!
1z"
0{"
0|"
0}"
0~"
1`!
0]!
0W!
0T!
0R!
16
1+!
0X!
1T
1z
0Z
0v
1Y!
1U
0a!
1Z!
1u
1t
1b!
1V
1j!
0c!
0q
1,!
0U
0{
1[
0u
0V!
0Z!
0V
1[!
1_!
0j!
1c!
1W
0d!
1S!
1|
0\
0t
0[!
1\!
0W
0e!
03
11
1q
0_!
0\!
14
12
00
1d!
01
02
1e!
10
#170000
b10001 "
1L"
1D#
1.!
1~"
1R!
06
0+!
1X!
0T
0,!
1w
1U
0S!
04
#180000
b10011 "
b10010 "
0L"
1K"
1C#
0D#
1/!
0.!
1}"
0~"
1T!
0R!
16
1+!
0X!
1T
0z
1Z
1v
0Y!
0U
1,!
0w
1Y!
1U
1{
0[
1u
1V!
1Z!
1S!
0Z!
0|
1\
1t
1[!
13
0q
1_!
1\!
14
0d!
11
12
0e!
00
#190000
b10011 "
1L"
1D#
1.!
1~"
1R!
06
0+!
1X!
0T
0,!
0Y!
0U
0S!
1Z!
04
#200000
b10111 "
b10101 "
b10100 "
0L"
0K"
1J"
1B#
0C#
0D#
10!
0/!
0.!
1|"
0}"
0~"
1W!
0T!
0R!
16
1+!
0X!
1T
1z
0Z
0v
1Y!
1U
1a!
0Z!
0u
1,!
0U
1u
0V!
0a!
1Z!
1V
0[!
1S!
1[!
0V
0\!
03
1\!
14
02
12
#210000
b10101 "
1L"
1D#
1.!
1~"
1R!
06
0+!
1X!
0T
0,!
1U
0S!
04
#220000
b10111 "
b10110 "
0L"
1K"
1C#
0D#
1/!
0.!
1}"
0~"
1T!
0R!
16
1+!
0X!
1T
0z
1Z
1v
0Y!
0U
1,!
1Y!
1U
0u
1V!
1a!
0Z!
1S!
0a!
1Z!
0[!
1V
13
0V
0\!
14
02
#230000
b10111 "
1L"
1D#
1.!
1~"
1R!
06
0+!
1X!
0T
0,!
0Y!
0U
0S!
1a!
0Z!
1V
04
#240000
b11111 "
b11011 "
b11001 "
b11000 "
0L"
0K"
0J"
1I"
1A#
0B#
0C#
0D#
11!
00!
0/!
0.!
1{"
0|"
0}"
0~"
1]!
0W!
0T!
0R!
16
1+!
0X!
1T
1z
0Z
0v
1Y!
1U
0a!
1Z!
1u
0t
0b!
0V
1,!
0U
0{
1[
0u
0V!
0Z!
1b!
1V
1[!
0_!
1j!
0c!
1S!
1t
0[!
0j!
1c!
1\!
1W
03
01
1_!
0\!
0W
14
12
11
02
#250000
b11001 "
1L"
1D#
1.!
1~"
1R!
06
0+!
1X!
0T
0,!
1U
0S!
04
#260000
b11011 "
b11010 "
0L"
1K"
1C#
0D#
1/!
0.!
1}"
0~"
1T!
0R!
16
1+!
0X!
1T
0z
1Z
1v
0Y!
0U
1,!
1Y!
1U
1{
0[
1u
1V!
1Z!
1S!
0Z!
0t
1[!
13
0_!
1\!
14
01
12
#270000
b11011 "
1L"
1D#
1.!
1~"
1R!
06
0+!
1X!
0T
0,!
0Y!
0U
0S!
1Z!
04
#280000
b11111 "
b11101 "
b11100 "
0L"
0K"
1J"
1B#
0C#
0D#
10!
0/!
0.!
1|"
0}"
0~"
1W!
0T!
0R!
16
1+!
0X!
1T
1z
0Z
0v
1Y!
1U
1a!
0Z!
0u
1,!
0U
1u
0V!
0a!
1Z!
0b!
0V
0[!
1S!
1[!
1b!
1V
1j!
0c!
0\!
03
1\!
0j!
1c!
1W
14
02
0W
12
#290000
b11101 "
1L"
1D#
1.!
1~"
1R!
06
0+!
1X!
0T
0,!
1U
0S!
04
#300000
b11111 "
b11110 "
0L"
1K"
1C#
0D#
1/!
0.!
1}"
0~"
1T!
0R!
16
1+!
0X!
1T
0z
1Z
1v
0Y!
0U
1,!
1Y!
1U
0u
1V!
1a!
0Z!
1S!
0a!
1Z!
0[!
0b!
0V
13
1b!
1V
0\!
1j!
0c!
14
0j!
1c!
1W
02
0W
#310000
b11111 "
1L"
1D#
1.!
1~"
1R!
06
0+!
1X!
0T
0,!
0Y!
0U
0S!
1a!
0Z!
0b!
0V
04
1j!
0c!
1W
